<?xml version="1.0" encoding="UTF-8" standalone="no"?>
<!-- Created with Inkscape (http://www.inkscape.org/) -->

<svg
   width="110mm"
   height="110mm"
   viewBox="0 0 110 110"
   version="1.1"
   id="svg5"
   sodipodi:docname="tumult-fill2.svg"
   inkscape:version="1.1.1 (3bf5ae0d25, 2021-09-20)"
   xmlns:inkscape="http://www.inkscape.org/namespaces/inkscape"
   xmlns:sodipodi="http://sodipodi.sourceforge.net/DTD/sodipodi-0.dtd"
   xmlns="http://www.w3.org/2000/svg"
   xmlns:svg="http://www.w3.org/2000/svg">
  <sodipodi:namedview
     id="namedview7"
     pagecolor="#505050"
     bordercolor="#eeeeee"
     borderopacity="1"
     inkscape:pageshadow="0"
     inkscape:pageopacity="0"
     inkscape:pagecheckerboard="0"
     inkscape:document-units="mm"
     showgrid="false"
     inkscape:zoom="1"
     inkscape:cx="189.5"
     inkscape:cy="254.5"
     inkscape:window-width="1920"
     inkscape:window-height="1027"
     inkscape:window-x="-8"
     inkscape:window-y="22"
     inkscape:window-maximized="1"
     inkscape:current-layer="layer1" />
  <defs
     id="defs2" />
  <g
     inkscape:label="Layer 1"
     inkscape:groupmode="layer"
     id="layer1">
    <g
       id="g964"
       transform="matrix(1.0064568,0,0,1.0052231,-134.44832,-105.89545)"
       style="fill:#cf6900;fill-opacity:1;stroke:none;stroke-opacity:1">
      <path
         style="fill:#cf6900;fill-opacity:1;stroke:none;stroke-width:0.233995;stroke-opacity:1"
         d="m 147.08751,196.38892 -1.85615,0.47197 c -0.43181,-1.92354 1.22325,-2.17014 1.85615,-0.47197 z"
         id="path4601" />
      <path
         style="fill:#cf6900;fill-opacity:1;stroke:none;stroke-width:0.233995;stroke-opacity:1"
         d="m 144.53549,192.53122 c -3.63631,1.16531 -2.12991,8.22961 1.62394,7.22242 1.47836,-0.39646 3.26956,-1.50561 3.57929,-3.12873 0.51837,-2.7167 -2.87975,-4.83847 -5.20323,-4.09369"
         id="path4599" />
      <path
         style="fill:#cf6900;fill-opacity:1;stroke:none;stroke-width:0.233995;stroke-opacity:1"
         d="m 160.1115,187.09169 c 1.46624,-0.63268 3.88341,0.21947 5.02959,1.18796 0.9587,0.81039 1.30719,2.26242 0.0186,2.92461 -1.46659,0.75374 -3.70451,0.93687 -5.03527,-0.16024 -1.02531,-0.84531 -1.54183,-3.29251 -0.0129,-3.95233"
         id="path4597" />
      <path
         style="fill:#cf6900;fill-opacity:1;stroke:none;stroke-width:0.233995;stroke-opacity:1"
         d="m 159.61649,184.24331 c -3.45067,0.85286 -3.95793,5.65711 -1.99759,8.13027 1.89611,2.39197 4.9027,2.42454 7.56604,1.71209 3.20092,-0.85616 4.68236,-4.38041 2.46171,-7.12684 -1.64594,-2.03516 -5.487,-3.34419 -8.03016,-2.71552"
         id="path4595" />
      <path
         style="fill:#cf6900;fill-opacity:1;stroke:none;stroke-width:0.233995;stroke-opacity:1"
         d="m 195.1144,122.87477 c 1.29977,-0.10232 1.68701,1.14591 1.68817,2.24571 0.002,1.75073 -1.81044,4.3474 0.86589,5.08923 1.44594,0.4008 3.49443,-0.27092 4.87147,-0.72564 3.10092,-1.02391 6.17447,-2.13513 9.28074,-3.14157 1.87146,-0.60637 4.13503,-1.48913 6.02807,-0.44741 2.2529,1.23957 1.53225,5.50605 0.72924,7.48498 -0.46868,1.15516 -1.41276,2.56899 -0.39212,3.71009 1.03875,1.16113 2.74177,0.65862 4.07564,0.61909 2.87982,-0.0853 7.01833,-0.0652 8.75012,2.75976 2.94965,4.81147 -5.30673,5.32003 -4.93295,9.19424 0.45638,4.72944 9.91323,5.84307 9.12529,11.32649 -0.44524,3.09971 -5.66937,1.8341 -7.60255,3.39776 -2.24571,1.81664 -0.98283,4.36319 -1.77564,6.75068 -0.68097,2.0505 -3.10209,3.38006 -4.95638,4.14088 -2.37749,0.97582 -5.09721,0.86443 -7.42459,-0.20271 -1.96775,-0.90218 -3.98469,-2.87386 -6.2645,-1.96932 -2.57796,1.02301 -4.33945,3.84968 -6.49652,5.52708 -3.6355,2.8269 -7.95569,4.37404 -12.50812,4.71646 -2.90696,0.21852 -9.66195,0.83398 -11.31578,-2.31033 -1.08979,-2.0715 3.5116,-5.55327 0.15684,-6.63787 -1.43434,-0.46372 -4.14501,0.51634 -5.56728,0.91445 -3.40557,0.95292 -9.14919,2.58478 -12.5281,0.9954 -3.34835,-1.57498 -0.43056,-4.48944 -0.43559,-6.82596 -0.003,-1.39445 -1.46585,-2.37073 -2.58156,-2.86017 -3.15222,-1.38219 -6.91299,-1.67882 -10.20881,-2.70585 -1.1739,-0.36601 -3.33856,-0.86654 -4.01109,-2.01699 -0.62123,-1.06265 0.72721,-1.93699 1.45907,-2.42525 1.83406,-1.22312 4.15406,-2.57888 4.16916,-5.09498 0.0239,-3.98679 -4.10408,-8.63339 -3.10503,-12.50738 0.75183,-2.91542 5.14984,-4.20401 7.75239,-4.12998 0.84856,0.0241 1.6883,0.73298 2.52605,0.30174 1.06232,-0.54686 0.81144,-3.2835 1.54536,-4.43116 1.65815,-2.59282 4.74434,-4.30284 7.2975,-5.85255 1.02343,-0.62114 2.2529,-1.50388 3.48028,-1.58053 3.97123,-0.24805 2.93782,6.70971 6.96055,5.89388 7.4594,-1.51285 13.47193,-8.58245 21.34478,-9.20227"
         id="path4593" />
      <path
         style="fill:#cf6900;fill-opacity:1;stroke:none;stroke-width:0.233995;stroke-opacity:1"
         d="m 155.90419,169.48626 c -2.29002,4.09676 -1.35726,8.83611 3.7123,9.76614 4.69118,0.86065 10.61137,-0.53687 15.08121,-1.97853 -0.33852,0.84461 -0.7232,1.67387 -0.80534,2.59587 -0.21438,2.40897 1.78306,4.33086 3.82158,5.13699 3.97239,1.57074 8.60557,1.03953 12.76102,0.74148 4.37749,-0.31363 8.92227,-2.61097 12.29698,-5.36118 1.60673,-1.30926 3.31021,-4.12578 5.33643,-4.69357 1.5594,-0.43681 4.46473,1.9849 6.03248,2.48165 3.85198,1.2203 8.213,-0.1043 11.36891,-2.49675 1.74177,-1.32036 2.80928,-3.07139 3.14641,-5.24814 0.17239,-1.1141 -0.36427,-3.0813 0.63387,-3.84614 3.14617,-2.41086 7.67958,0.18053 8.53434,-5.3574 0.12529,-0.81251 0.13341,-1.5613 -0.0877,-2.35989 -1.28817,-4.65463 -7.02227,-5.7456 -8.97865,-9.67551 5.50696,-2.32519 7.70603,-9.18801 1.85614,-12.63375 -3.23178,-1.90362 -6.5529,-0.97128 -9.97679,-1.52554 0.79884,-1.42953 1.00649,-2.87189 1.19605,-4.48378 0.49118,-4.17541 -1.5877,-8.18813 -6.30047,-7.74737 -5.72621,0.53555 -10.77076,4.20578 -16.47331,4.67952 0.96125,-3.77873 -0.27286,-8.02662 -4.87239,-7.07873 -5.37123,1.1069 -10.26497,3.73318 -15.08121,6.27062 -1.45151,0.76469 -3.63341,2.46669 -5.31137,2.47714 -1.02575,0.006 -1.38817,-1.90065 -1.86172,-2.61298 -1.24524,-1.87318 -3.27842,-3.36949 -5.58793,-2.95804 -4.11995,0.73399 -8.95678,4.40618 -11.67773,7.50919 -0.92543,1.05536 -1.36134,2.9275 -2.48543,3.72937 -0.84211,0.60075 -2.47563,0.42874 -3.47025,0.64425 -2.79627,0.60587 -6.4175,2.60915 -7.10128,5.7065 -1.0119,4.58383 3.60938,8.8295 2.98921,13.21534 -0.44273,3.13109 -8.20305,4.27233 -5.46049,8.73062 1.05137,1.70926 3.15145,2.45663 4.93219,3.06784 3.88654,1.33428 8.01276,1.80815 11.83294,3.30478"
         id="path3384" />
    </g>
    <g
       id="g1631"
       transform="matrix(1.0064568,0,0,1.0052231,-163.46828,-19.414013)"
       style="fill:#e6e6e6;fill-opacity:1">
      <path
         style="fill:#e6e6e6;fill-opacity:1;stroke-width:0.241719"
         d="m 185.13486,80.543765 c -0.51522,-0.499929 -0.58057,-0.925372 -0.97837,-6.369048 -0.55052,-7.533546 -0.67266,-8.596501 -0.99914,-8.695685 -0.1486,-0.04514 -1.68995,-0.154244 -3.42523,-0.242448 -2.62756,-0.133557 -3.23273,-0.235731 -3.61964,-0.611119 -0.59323,-0.575582 -0.5843,-0.810776 0.0544,-1.430431 0.48639,-0.471914 0.71826,-0.497468 3.69688,-0.407425 l 3.17794,0.09607 -0.16193,-1.199719 c -0.26823,-1.98728 -1.28031,-6.606347 -1.68915,-7.709141 -0.58299,-1.572552 0.25481,-2.606367 1.48065,-1.827069 1.06316,0.675874 1.65113,2.470647 2.53879,7.749647 0.27006,1.606084 0.52779,2.95583 0.57274,2.999437 0.0449,0.04361 1.22943,0.15226 2.6322,0.241453 2.20405,0.140141 2.62684,0.236246 3.11257,0.707525 0.69038,0.669831 0.70041,0.908986 0.064,1.52644 -0.46093,0.447219 -0.6901,0.471203 -3.0738,0.321679 -2.15039,-0.134888 -2.55621,-0.106565 -2.45744,0.171514 0.0651,0.183195 0.28937,2.583083 0.49845,5.333083 0.20908,2.75 0.44682,5.872231 0.52831,6.93829 0.1346,1.760795 0.10077,1.984276 -0.36942,2.440476 -0.65489,0.635398 -0.89874,0.630231 -1.58279,-0.03353 z m 20.75874,-0.06824 c -0.76682,-0.521119 -1.00012,-1.612828 -1.53701,-7.192504 -0.26153,-2.7179 -0.59498,-5.561271 -0.74101,-6.318604 -0.14602,-0.757332 -0.19653,-1.587802 -0.11224,-1.84549 0.22198,-0.678568 0.98872,-1.019588 1.59021,-0.707264 0.36696,0.190547 0.66935,0.162998 1.2148,-0.110671 0.39943,-0.200403 0.98774,-0.364369 1.30737,-0.364369 0.96605,0 2.99506,0.67434 3.9797,1.32265 l 0.92745,0.610651 0.64227,-0.580416 c 0.92778,-0.838418 1.44499,-1.041398 3.09627,-1.21512 1.2251,-0.128888 1.60409,-0.0754 2.2566,0.318489 1.63812,0.988858 2.26968,2.987809 2.27816,7.210598 0.005,2.67372 0.31311,4.61066 0.91382,5.751648 0.67405,1.280286 -0.27333,2.642462 -1.42272,2.045633 -1.3095,-0.679964 -2.13863,-4.14179 -2.19258,-9.154609 -0.0255,-2.36719 -0.40024,-3.543053 -1.1627,-3.648054 -0.92617,-0.127547 -2.13769,0.397364 -2.57502,1.115665 -0.44493,0.730797 -0.33621,1.471419 0.45284,3.084734 0.45796,0.936351 0.29805,1.829048 -0.39179,2.187254 -1.02235,0.530862 -1.53105,-0.118873 -3.38747,-4.326661 -0.56248,-1.274911 -1.22566,-1.777045 -2.6353,-1.995324 -0.97341,-0.150729 -1.00446,-0.133693 -1.43157,0.785274 -0.41626,0.895623 -0.41736,1.14881 -0.0237,5.439657 0.36759,4.00689 0.57079,5.110117 1.20919,6.565236 0.20948,0.477471 -0.63069,1.387457 -1.28101,1.387457 -0.23991,0 -0.67845,-0.164638 -0.97455,-0.36586 z m 33.36738,-0.03204 c -0.17232,-0.06722 -0.54271,-0.558497 -0.82309,-1.091731 -0.64292,-1.222707 -2.02845,-8.965107 -2.67338,-14.938938 -0.26155,-2.422619 -0.59414,-4.809764 -0.73909,-5.304767 -0.56786,-1.939247 -1.66696,-3.925753 -2.52226,-4.558701 -1.08325,-0.80165 -1.26084,-1.24606 -0.78154,-1.955795 0.43194,-0.639602 1.07709,-0.711563 2.03663,-0.227169 1.06554,0.537899 1.68313,1.329784 2.71341,3.479182 1.16166,2.423484 1.65345,4.621106 2.01091,8.986031 0.14736,1.799433 0.42429,4.128838 0.6154,5.176457 0.19111,1.047619 0.57572,3.233847 0.85468,4.858284 0.27897,1.624435 0.66686,3.253045 0.86197,3.619128 0.46561,0.873581 0.449,1.074012 -0.13604,1.641636 -0.48887,0.474321 -0.82207,0.548686 -1.4176,0.316383 z m 8.94136,-0.375907 c -0.51521,-0.499928 -0.58057,-0.925371 -0.97837,-6.369047 -0.55052,-7.533546 -0.67265,-8.596502 -0.99914,-8.695686 -0.14859,-0.04514 -1.68995,-0.154243 -3.42523,-0.242447 -2.62756,-0.133558 -3.23273,-0.235732 -3.61963,-0.611119 -0.59324,-0.575583 -0.5843,-0.810777 0.0544,-1.430432 0.48639,-0.471913 0.71826,-0.497467 3.69688,-0.407424 l 3.17795,0.09607 -0.16193,-1.199719 c -0.26823,-1.98728 -1.28032,-6.606347 -1.68915,-7.709141 -0.58299,-1.572552 0.25481,-2.606367 1.48065,-1.82707 1.06315,0.675874 1.65112,2.470648 2.53878,7.749647 0.27007,1.606084 0.5278,2.955831 0.57274,2.999437 0.045,0.04361 1.22944,0.152261 2.63221,0.241453 2.20404,0.140141 2.62683,0.236247 3.11257,0.707525 0.69038,0.669832 0.7004,0.908987 0.064,1.526441 -0.46094,0.447219 -0.69011,0.471202 -3.07381,0.321678 -2.15038,-0.134887 -2.5562,-0.106564 -2.45743,0.171514 0.0651,0.183196 0.28937,2.583083 0.49844,5.333083 0.20908,2.75 0.44682,5.872231 0.52832,6.938291 0.13459,1.760795 0.10076,1.984276 -0.36943,2.440476 -0.65489,0.635397 -0.89874,0.630231 -1.58279,-0.03353 z m -54.03632,-0.983102 c -2.00791,-2.03321 -2.88996,-4.745623 -3.21101,-9.874333 -0.15255,-2.436975 -0.13147,-2.616545 0.36364,-3.096914 0.66491,-0.645117 0.90482,-0.639815 1.60073,0.03538 0.49656,0.481781 0.5808,0.863221 0.72304,3.273809 0.21394,3.625645 0.69416,5.684073 1.63591,7.012123 0.85436,1.204807 1.29027,1.328633 1.83543,0.52138 0.64083,-0.948928 0.84453,-2.727802 0.56338,-4.92003 -0.14304,-1.115311 -0.27642,-2.617124 -0.2964,-3.337362 -0.02,-0.720238 -0.1218,-1.550596 -0.22627,-1.845238 -0.25002,-0.705173 0.004,-1.427255 0.6124,-1.743365 1.28181,-0.665588 2.13954,1.0625 3.67203,7.398126 0.42761,1.767858 1.04063,3.794053 1.36226,4.502655 0.63031,1.388691 0.58025,2.018048 -0.19246,2.419281 -0.65578,0.340517 -1.56723,-0.238169 -2.10796,-1.338352 -0.22212,-0.451924 -0.46623,-0.820853 -0.54245,-0.819845 -0.0762,9.52e-4 -0.39358,0.434997 -0.70522,0.964416 -0.70417,1.196279 -1.83832,1.888841 -3.09508,1.890003 -0.81679,7.14e-4 -1.11802,-0.156777 -1.99197,-1.041736 z m 31.16565,-0.476191 c -2.00792,-2.033209 -2.88996,-4.745623 -3.21102,-9.874332 -0.15254,-2.436976 -0.13146,-2.616545 0.36364,-3.096914 0.66491,-0.645118 0.90483,-0.639815 1.60073,0.03538 0.49656,0.481782 0.58081,0.863222 0.72305,3.27381 0.21393,3.625645 0.69416,5.684073 1.63591,7.012122 0.85435,1.204807 1.29026,1.328633 1.83542,0.521381 0.64084,-0.948929 0.84453,-2.727803 0.56338,-4.92003 -0.14303,-1.115311 -0.27641,-2.617125 -0.2964,-3.337363 -0.02,-0.720238 -0.1218,-1.550595 -0.22627,-1.845238 -0.25002,-0.705173 0.004,-1.427254 0.61241,-1.743365 1.28181,-0.665588 2.13954,1.062501 3.67202,7.398127 0.42762,1.767857 1.04064,3.794052 1.36227,4.502655 0.63031,1.38869 0.58024,2.018047 -0.19247,2.419281 -0.65577,0.340516 -1.56723,-0.238169 -2.10796,-1.338353 -0.22212,-0.451924 -0.46622,-0.820852 -0.54245,-0.819845 -0.0762,9.52e-4 -0.39357,0.434998 -0.70521,0.964417 -0.70418,1.196278 -1.83833,1.88884 -3.09509,1.890002 -0.81678,7.14e-4 -1.11801,-0.156776 -1.99196,-1.041735 z"
         id="path1633" />
    </g>
  </g>
</svg>
